module wegecan

go 1.15

require (
	github.com/appleboy/gin-jwt/v2 v2.6.4 // indirect
	github.com/davecgh/go-spew v1.1.1
	github.com/dgrijalva/jwt-go v3.2.0+incompatible
	github.com/gin-gonic/gin v1.7.2
	github.com/go-playground/validator/v10 v10.7.0 // indirect
	github.com/golang/protobuf v1.5.2 // indirect
	github.com/influxdata/influxdb-client-go v1.4.0
	github.com/influxdata/influxdb-client-go/v2 v2.4.0
	github.com/joho/godotenv v1.3.0
	github.com/json-iterator/go v1.1.11 // indirect
	github.com/leodido/go-urn v1.2.1 // indirect
	github.com/mattn/go-isatty v0.0.13 // indirect
	github.com/modern-go/concurrent v0.0.0-20180306012644-bacd9c7ef1dd // indirect
	github.com/modern-go/reflect2 v1.0.1 // indirect
	github.com/ugorji/go v1.2.6 // indirect
	golang.org/x/crypto v0.0.0-20210711020723-a769d52b0f97 // indirect
	golang.org/x/sys v0.0.0-20210630005230-0f9fa26af87c // indirect
	golang.org/x/text v0.3.6 // indirect
	google.golang.org/protobuf v1.27.1 // indirect
	gopkg.in/yaml.v2 v2.4.0 // indirect
)
